{
  "port": 3030,
  "db": {
    "username": "root",
    "password": "pass",
    "database": "test",
    "host": "mariadb",
    "dialect": "mysql"
  },
  "secretToken": "secret",
  "redis": {
    "host": "redis",
    "port": 6379
  },
  "mongo": {
    "host": "mongodb://mongo/test"
  }
}
